|---------------|
|Fuzzy Partition|
|---------------|

u_1_1: 0.333 u_1_2: 0.667 
u_2_1: 0.500 u_2_2: 0.500 
u_3_1: 0.500 u_3_2: 0.500 
u_4_1: 0.500 u_4_2: 0.500 
u_5_1: 0.435 u_5_2: 0.565 
u_6_1: 0.435 u_6_2: 0.565 
u_7_1: 0.440 u_7_2: 0.560 
u_8_1: 0.440 u_8_2: 0.560 
u_9_1: 0.375 u_9_2: 0.625 
u_10_1: 0.455 u_10_2: 0.545 
u_11_1: 0.455 u_11_2: 0.545 
u_12_1: 0.381 u_12_2: 0.619 
u_13_1: 0.429 u_13_2: 0.571 
u_14_1: 0.625 u_14_2: 0.375 
u_15_1: 0.625 u_15_2: 0.375 
u_16_1: 0.600 u_16_2: 0.400 
u_17_1: 0.526 u_17_2: 0.474 
u_18_1: 0.526 u_18_2: 0.474 
u_19_1: 0.524 u_19_2: 0.476 
u_20_1: 0.524 u_20_2: 0.476 
u_21_1: 0.450 u_21_2: 0.550 
u_22_1: 0.400 u_22_2: 0.600 
u_23_1: 0.545 u_23_2: 0.455 
u_24_1: 0.545 u_24_2: 0.455 
u_25_1: 0.538 u_25_2: 0.462 
u_26_1: 0.480 u_26_2: 0.520 
u_27_1: 0.480 u_27_2: 0.520 
u_28_1: 0.478 u_28_2: 0.522 
u_29_1: 0.478 u_29_2: 0.522 
u_30_1: 0.600 u_30_2: 0.400 
u_31_1: 0.600 u_31_2: 0.400 
u_32_1: 0.542 u_32_2: 0.458 
u_33_1: 0.542 u_33_2: 0.458 
u_34_1: 0.536 u_34_2: 0.464 
u_35_1: 0.500 u_35_2: 0.500 
u_36_1: 0.500 u_36_2: 0.500 
u_37_1: 0.435 u_37_2: 0.565 
u_38_1: 0.500 u_38_2: 0.500 
u_39_1: 0.500 u_39_2: 0.500 
u_40_1: 0.636 u_40_2: 0.364 
u_41_1: 0.636 u_41_2: 0.364 
u_42_1: 0.571 u_42_2: 0.429 
u_43_1: 0.571 u_43_2: 0.429 
u_44_1: 0.560 u_44_2: 0.440 
u_45_1: 0.429 u_45_2: 0.571 
u_46_1: 0.565 u_46_2: 0.435 
u_47_1: 0.565 u_47_2: 0.435 
u_48_1: 0.556 u_48_2: 0.444 
u_49_1: 0.500 u_49_2: 0.500 
u_50_1: 0.500 u_50_2: 0.500 
u_51_1: 0.500 u_51_2: 0.500 
u_52_1: 0.500 u_52_2: 0.500 
u_53_1: 0.421 u_53_2: 0.579 
u_54_1: 0.462 u_54_2: 0.538 
u_55_1: 0.462 u_55_2: 0.538 
u_56_1: 0.400 u_56_2: 0.600 
u_57_1: 0.455 u_57_2: 0.545 
u_58_1: 0.455 u_58_2: 0.545 
u_59_1: 0.583 u_59_2: 0.417 
u_60_1: 0.583 u_60_2: 0.417 
u_61_1: 0.522 u_61_2: 0.478 
u_62_1: 0.522 u_62_2: 0.478 
u_63_1: 0.519 u_63_2: 0.481 
u_64_1: 0.391 u_64_2: 0.609 
u_65_1: 0.520 u_65_2: 0.480 
u_66_1: 0.520 u_66_2: 0.480 
u_67_1: 0.517 u_67_2: 0.483 
u_68_1: 0.464 u_68_2: 0.536 
u_69_1: 0.464 u_69_2: 0.536 
u_70_1: 0.400 u_70_2: 0.600 
u_71_1: 0.545 u_71_2: 0.455 
u_72_1: 0.545 u_72_2: 0.455 
u_73_1: 0.538 u_73_2: 0.462 
u_74_1: 0.480 u_74_2: 0.520 
u_75_1: 0.480 u_75_2: 0.520 
u_76_1: 0.481 u_76_2: 0.519 
u_77_1: 0.481 u_77_2: 0.519 
u_78_1: 0.423 u_78_2: 0.577 
u_79_1: 0.625 u_79_2: 0.375 
u_80_1: 0.400 u_80_2: 0.600 
u_81_1: 0.556 u_81_2: 0.444 
u_82_1: 0.545 u_82_2: 0.455 
u_83_1: 0.478 u_83_2: 0.522 
u_84_1: 0.478 u_84_2: 0.522 
u_85_1: 0.500 u_85_2: 0.500 
u_86_1: 0.429 u_86_2: 0.571 
u_87_1: 0.667 u_87_2: 0.333 
u_88_1: 0.667 u_88_2: 0.333 
u_89_1: 0.714 u_89_2: 0.286 
u_90_1: 0.875 u_90_2: 0.125 
u_91_1: 0.737 u_91_2: 0.263 
u_92_1: 0.737 u_92_2: 0.263 
u_93_1: 0.714 u_93_2: 0.286 
u_94_1: 0.714 u_94_2: 0.286 
u_95_1: 0.650 u_95_2: 0.350 
u_96_1: 0.650 u_96_2: 0.350 
u_97_1: 0.700 u_97_2: 0.300 
u_98_1: 0.700 u_98_2: 0.300 
u_99_1: 0.632 u_99_2: 0.368 
u_100_1: 0.619 u_100_2: 0.381 
u_101_1: 0.619 u_101_2: 0.381 
u_102_1: 0.455 u_102_2: 0.545 
u_103_1: 0.455 u_103_2: 0.545 
u_104_1: 0.391 u_104_2: 0.609 
u_105_1: 0.400 u_105_2: 0.600 
u_106_1: 0.700 u_106_2: 0.300 
u_107_1: 0.700 u_107_2: 0.300 
u_108_1: 0.632 u_108_2: 0.368 
u_109_1: 0.632 u_109_2: 0.368 
u_110_1: 0.619 u_110_2: 0.381 
u_111_1: 0.619 u_111_2: 0.381 
u_112_1: 0.600 u_112_2: 0.400 
u_113_1: 0.600 u_113_2: 0.400 
u_114_1: 0.143 u_114_2: 0.857 
u_115_1: 0.375 u_115_2: 0.625 
u_116_1: 0.333 u_116_2: 0.667 
u_117_1: 0.364 u_117_2: 0.636 
u_118_1: 0.304 u_118_2: 0.696 
u_119_1: 0.300 u_119_2: 0.700 
u_120_1: 0.300 u_120_2: 0.700 
u_121_1: 0.238 u_121_2: 0.762 
u_122_1: 0.250 u_122_2: 0.750 
u_123_1: 0.444 u_123_2: 0.556 
u_124_1: 0.429 u_124_2: 0.571 
u_125_1: 0.429 u_125_2: 0.571 
u_126_1: 0.444 u_126_2: 0.556 
u_127_1: 0.625 u_127_2: 0.375 
u_128_1: 0.526 u_128_2: 0.474 
u_129_1: 0.368 u_129_2: 0.632 
u_130_1: 0.368 u_130_2: 0.632 
u_131_1: 0.524 u_131_2: 0.476 
u_132_1: 0.450 u_132_2: 0.550 
u_133_1: 0.545 u_133_2: 0.455 
u_134_1: 0.480 u_134_2: 0.520 
u_135_1: 0.500 u_135_2: 0.500 
u_136_1: 0.435 u_136_2: 0.565 
u_137_1: 0.333 u_137_2: 0.667 
u_138_1: 0.333 u_138_2: 0.667 
u_139_1: 0.500 u_139_2: 0.500 
u_140_1: 0.421 u_140_2: 0.579 
u_141_1: 0.263 u_141_2: 0.737 
u_142_1: 0.429 u_142_2: 0.571 
u_143_1: 0.462 u_143_2: 0.538 
u_144_1: 0.417 u_144_2: 0.583 
u_145_1: 0.250 u_145_2: 0.750 
u_146_1: 0.444 u_146_2: 0.556 
u_147_1: 0.444 u_147_2: 0.556 
u_148_1: 0.455 u_148_2: 0.545 
u_149_1: 0.381 u_149_2: 0.619 
u_150_1: 0.381 u_150_2: 0.619 
u_151_1: 0.429 u_151_2: 0.571 
u_152_1: 0.444 u_152_2: 0.556 
u_153_1: 0.625 u_153_2: 0.375 
u_154_1: 0.526 u_154_2: 0.474 
u_155_1: 0.368 u_155_2: 0.632 
u_156_1: 0.368 u_156_2: 0.632 
u_157_1: 0.524 u_157_2: 0.476 
u_158_1: 0.450 u_158_2: 0.550 
u_159_1: 0.400 u_159_2: 0.600 
u_160_1: 0.417 u_160_2: 0.583 
u_161_1: 0.556 u_161_2: 0.444 
u_162_1: 0.478 u_162_2: 0.522 
u_163_1: 0.478 u_163_2: 0.522 
u_164_1: 0.364 u_164_2: 0.636 
u_165_1: 0.364 u_165_2: 0.636 
u_166_1: 0.500 u_166_2: 0.500 
u_167_1: 0.500 u_167_2: 0.500 
u_168_1: 0.429 u_168_2: 0.571 
u_169_1: 0.429 u_169_2: 0.571 
u_170_1: 0.440 u_170_2: 0.560 
u_171_1: 0.500 u_171_2: 0.500 
u_172_1: 0.667 u_172_2: 0.333 
u_173_1: 0.571 u_173_2: 0.429 
u_174_1: 0.714 u_174_2: 0.286 
u_175_1: 0.579 u_175_2: 0.421 
u_176_1: 0.650 u_176_2: 0.350 
u_177_1: 0.600 u_177_2: 0.400 
u_178_1: 0.619 u_178_2: 0.381 
u_179_1: 0.545 u_179_2: 0.455 
u_180_1: 0.476 u_180_2: 0.524 
u_181_1: 0.556 u_181_2: 0.444 
u_182_1: 0.632 u_182_2: 0.368 
u_183_1: 0.474 u_183_2: 0.526 
u_184_1: 0.619 u_184_2: 0.381 
u_185_1: 0.542 u_185_2: 0.458 
u_186_1: 0.565 u_186_2: 0.435 
u_187_1: 0.600 u_187_2: 0.400 
u_188_1: 0.364 u_188_2: 0.636 
u_189_1: 0.364 u_189_2: 0.636 
u_190_1: 0.286 u_190_2: 0.714 
u_191_1: 0.333 u_191_2: 0.667 
u_192_1: 0.333 u_192_2: 0.667 
u_193_1: 0.500 u_193_2: 0.500 
u_194_1: 0.421 u_194_2: 0.579 
u_195_1: 0.263 u_195_2: 0.737 
u_196_1: 0.429 u_196_2: 0.571 
u_197_1: 0.333 u_197_2: 0.667 
u_198_1: 0.455 u_198_2: 0.545 
u_199_1: 0.455 u_199_2: 0.545 
u_200_1: 0.391 u_200_2: 0.609 
u_201_1: 0.407 u_201_2: 0.593 
u_202_1: 0.273 u_202_2: 0.727 
u_203_1: 0.400 u_203_2: 0.600 
u_204_1: 0.400 u_204_2: 0.600 
u_205_1: 0.417 u_205_2: 0.583 
u_206_1: 0.360 u_206_2: 0.640 
u_207_1: 0.360 u_207_2: 0.640 
u_208_1: 0.545 u_208_2: 0.455 
u_209_1: 0.476 u_209_2: 0.524 
u_210_1: 0.556 u_210_2: 0.444 
u_211_1: 0.632 u_211_2: 0.368 
u_212_1: 0.474 u_212_2: 0.526 
u_213_1: 0.619 u_213_2: 0.381 
u_214_1: 0.542 u_214_2: 0.458 
u_215_1: 0.565 u_215_2: 0.435 
u_216_1: 0.600 u_216_2: 0.400 
u_217_1: 0.455 u_217_2: 0.545 
u_218_1: 0.444 u_218_2: 0.556 
u_219_1: 0.600 u_219_2: 0.400 
u_220_1: 0.522 u_220_2: 0.478 
u_221_1: 0.520 u_221_2: 0.480 
u_222_1: 0.458 u_222_2: 0.542 
u_223_1: 0.545 u_223_2: 0.455 
u_224_1: 0.364 u_224_2: 0.636 
u_225_1: 0.364 u_225_2: 0.636 
u_226_1: 0.304 u_226_2: 0.696 
u_227_1: 0.300 u_227_2: 0.700 
u_228_1: 0.444 u_228_2: 0.556 
u_229_1: 0.444 u_229_2: 0.556 
u_230_1: 0.600 u_230_2: 0.400 
u_231_1: 0.526 u_231_2: 0.474 
u_232_1: 0.368 u_232_2: 0.632 
u_233_1: 0.524 u_233_2: 0.476 
u_234_1: 0.538 u_234_2: 0.462 
u_235_1: 0.480 u_235_2: 0.520 
u_236_1: 0.500 u_236_2: 0.500 
u_237_1: 0.333 u_237_2: 0.667 
u_238_1: 0.500 u_238_2: 0.500 
u_239_1: 0.462 u_239_2: 0.538 
u_240_1: 0.455 u_240_2: 0.545 
u_241_1: 0.455 u_241_2: 0.545 
u_242_1: 0.381 u_242_2: 0.619 
u_243_1: 0.444 u_243_2: 0.556 
u_244_1: 0.600 u_244_2: 0.400 
u_245_1: 0.526 u_245_2: 0.474 
u_246_1: 0.368 u_246_2: 0.632 
u_247_1: 0.524 u_247_2: 0.476 
u_248_1: 0.417 u_248_2: 0.583 
u_249_1: 0.417 u_249_2: 0.583 
u_250_1: 0.545 u_250_2: 0.455 
u_251_1: 0.545 u_251_2: 0.455 
u_252_1: 0.478 u_252_2: 0.522 
u_253_1: 0.478 u_253_2: 0.522 
u_254_1: 0.481 u_254_2: 0.519 
u_255_1: 0.364 u_255_2: 0.636 
u_256_1: 0.500 u_256_2: 0.500 
u_257_1: 0.500 u_257_2: 0.500 
u_258_1: 0.440 u_258_2: 0.560 
u_259_1: 0.440 u_259_2: 0.560 
u_260_1: 0.636 u_260_2: 0.364 
u_261_1: 0.571 u_261_2: 0.429 
u_262_1: 0.667 u_262_2: 0.333 
u_263_1: 0.737 u_263_2: 0.263 
u_264_1: 0.579 u_264_2: 0.421 
u_265_1: 0.714 u_265_2: 0.286 
u_266_1: 0.625 u_266_2: 0.375 
u_267_1: 0.652 u_267_2: 0.348 
u_268_1: 0.700 u_268_2: 0.300 
u_269_1: 0.545 u_269_2: 0.455 
u_270_1: 0.556 u_270_2: 0.444 
u_271_1: 0.700 u_271_2: 0.300 
u_272_1: 0.609 u_272_2: 0.391 
u_273_1: 0.600 u_273_2: 0.400 
u_274_1: 0.542 u_274_2: 0.458 
u_275_1: 0.636 u_275_2: 0.364 
u_276_1: 0.333 u_276_2: 0.667 
u_277_1: 0.500 u_277_2: 0.500 
u_278_1: 0.333 u_278_2: 0.667 
u_279_1: 0.455 u_279_2: 0.545 
u_280_1: 0.455 u_280_2: 0.545 
u_281_1: 0.462 u_281_2: 0.538 
u_282_1: 0.407 u_282_2: 0.593 
u_283_1: 0.407 u_283_2: 0.593 
u_284_1: 0.417 u_284_2: 0.583 
u_285_1: 0.417 u_285_2: 0.583 
u_286_1: 0.360 u_286_2: 0.640 
u_287_1: 0.545 u_287_2: 0.455 
u_288_1: 0.556 u_288_2: 0.444 
u_289_1: 0.700 u_289_2: 0.300 
u_290_1: 0.609 u_290_2: 0.391 
u_291_1: 0.600 u_291_2: 0.400 
u_292_1: 0.542 u_292_2: 0.458 
u_293_1: 0.583 u_293_2: 0.417 
u_294_1: 0.522 u_294_2: 0.478 
u_295_1: 0.520 u_295_2: 0.480 
u_296_1: 0.286 u_296_2: 0.714 
u_297_1: 0.500 u_297_2: 0.500 
u_298_1: 0.455 u_298_2: 0.545 
u_299_1: 0.375 u_299_2: 0.625 
u_300_1: 0.571 u_300_2: 0.429 
u_301_1: 0.571 u_301_2: 0.429 
u_302_1: 0.556 u_302_2: 0.444 
u_303_1: 0.632 u_303_2: 0.368 
u_304_1: 0.474 u_304_2: 0.526 
u_305_1: 0.474 u_305_2: 0.526 
u_306_1: 0.550 u_306_2: 0.450 
u_307_1: 0.500 u_307_2: 0.500 
u_308_1: 0.560 u_308_2: 0.440 
u_309_1: 0.522 u_309_2: 0.478 
u_310_1: 0.444 u_310_2: 0.556 
u_311_1: 0.444 u_311_2: 0.556 
u_312_1: 0.600 u_312_2: 0.400 
u_313_1: 0.526 u_313_2: 0.474 
u_314_1: 0.368 u_314_2: 0.632 
u_315_1: 0.524 u_315_2: 0.476 
u_316_1: 0.538 u_316_2: 0.462 
u_317_1: 0.480 u_317_2: 0.520 
u_318_1: 0.500 u_318_2: 0.500 
u_319_1: 0.375 u_319_2: 0.625 
u_320_1: 0.556 u_320_2: 0.444 
u_321_1: 0.556 u_321_2: 0.444 
u_322_1: 0.545 u_322_2: 0.455 
u_323_1: 0.476 u_323_2: 0.524 
u_324_1: 0.476 u_324_2: 0.524 
u_325_1: 0.750 u_325_2: 0.250 
u_326_1: 0.632 u_326_2: 0.368 
u_327_1: 0.619 u_327_2: 0.381 
u_328_1: 0.550 u_328_2: 0.450 
u_329_1: 0.667 u_329_2: 0.333 
u_330_1: 0.625 u_330_2: 0.375 
u_331_1: 0.667 u_331_2: 0.333 
u_332_1: 0.857 u_332_2: 0.143 
u_333_1: 0.684 u_333_2: 0.316 
u_334_1: 0.750 u_334_2: 0.250 
u_335_1: 0.700 u_335_2: 0.300 
u_336_1: 0.714 u_336_2: 0.286 
u_337_1: 0.636 u_337_2: 0.364 
u_338_1: 0.571 u_338_2: 0.429 
u_339_1: 0.667 u_339_2: 0.333 
u_340_1: 0.737 u_340_2: 0.263 
u_341_1: 0.579 u_341_2: 0.421 
u_342_1: 0.714 u_342_2: 0.286 
u_343_1: 0.625 u_343_2: 0.375 
u_344_1: 0.652 u_344_2: 0.348 
u_345_1: 0.700 u_345_2: 0.300 
u_346_1: 0.455 u_346_2: 0.545 
u_347_1: 0.455 u_347_2: 0.545 
u_348_1: 0.381 u_348_2: 0.619 
u_349_1: 0.600 u_349_2: 0.400 
u_350_1: 0.526 u_350_2: 0.474 
u_351_1: 0.524 u_351_2: 0.476 
u_352_1: 0.571 u_352_2: 0.429 
u_353_1: 0.667 u_353_2: 0.333 
u_354_1: 0.737 u_354_2: 0.263 
u_355_1: 0.579 u_355_2: 0.421 
u_356_1: 0.625 u_356_2: 0.375 
u_357_1: 0.652 u_357_2: 0.348 
u_358_1: 0.700 u_358_2: 0.300 
u_359_1: 0.545 u_359_2: 0.455 
u_360_1: 0.556 u_360_2: 0.444 
u_361_1: 0.700 u_361_2: 0.300 
u_362_1: 0.609 u_362_2: 0.391 
u_363_1: 0.600 u_363_2: 0.400 
u_364_1: 0.542 u_364_2: 0.458 
u_365_1: 0.636 u_365_2: 0.364 
u_366_1: 0.125 u_366_2: 0.875 
u_367_1: 0.333 u_367_2: 0.667 
u_368_1: 0.333 u_368_2: 0.667 
u_369_1: 0.364 u_369_2: 0.636 
u_370_1: 0.286 u_370_2: 0.714 
u_371_1: 0.286 u_371_2: 0.714 
u_372_1: 0.286 u_372_2: 0.714 
u_373_1: 0.286 u_373_2: 0.714 
u_374_1: 0.333 u_374_2: 0.667 
u_375_1: 0.263 u_375_2: 0.737 
u_376_1: 0.263 u_376_2: 0.737 
u_377_1: 0.455 u_377_2: 0.545 
u_378_1: 0.400 u_378_2: 0.600 
u_379_1: 0.444 u_379_2: 0.556 
u_380_1: 0.417 u_380_2: 0.583 
u_381_1: 0.348 u_381_2: 0.652 
u_382_1: 0.375 u_382_2: 0.625 
u_383_1: 0.375 u_383_2: 0.625 
u_384_1: 0.400 u_384_2: 0.600 
u_385_1: 0.476 u_385_2: 0.524 
u_386_1: 0.571 u_386_2: 0.429 
u_387_1: 0.474 u_387_2: 0.526 
u_388_1: 0.474 u_388_2: 0.526 
u_389_1: 0.500 u_389_2: 0.500 
u_390_1: 0.455 u_390_2: 0.545 
u_391_1: 0.522 u_391_2: 0.478 
u_392_1: 0.524 u_392_2: 0.476 
u_393_1: 0.300 u_393_2: 0.700 
u_394_1: 0.300 u_394_2: 0.700 
u_395_1: 0.455 u_395_2: 0.545 
u_396_1: 0.381 u_396_2: 0.619 
u_397_1: 0.444 u_397_2: 0.556 
u_398_1: 0.444 u_398_2: 0.556 
u_399_1: 0.368 u_399_2: 0.632 
u_400_1: 0.368 u_400_2: 0.632 
u_401_1: 0.391 u_401_2: 0.609 
u_402_1: 0.417 u_402_2: 0.583 
u_403_1: 0.480 u_403_2: 0.520 
u_404_1: 0.478 u_404_2: 0.522 
u_405_1: 0.364 u_405_2: 0.636 
u_406_1: 0.500 u_406_2: 0.500 
u_407_1: 0.444 u_407_2: 0.556 
u_408_1: 0.500 u_408_2: 0.500 
u_409_1: 0.300 u_409_2: 0.700 
u_410_1: 0.300 u_410_2: 0.700 
u_411_1: 0.455 u_411_2: 0.545 
u_412_1: 0.455 u_412_2: 0.545 
u_413_1: 0.381 u_413_2: 0.619 
u_414_1: 0.381 u_414_2: 0.619 
u_415_1: 0.400 u_415_2: 0.600 
u_416_1: 0.478 u_416_2: 0.522 
u_417_1: 0.500 u_417_2: 0.500 
u_418_1: 0.579 u_418_2: 0.421 
u_419_1: 0.545 u_419_2: 0.455 
u_420_1: 0.556 u_420_2: 0.444 
u_421_1: 0.500 u_421_2: 0.500 
u_422_1: 0.520 u_422_2: 0.480 
u_423_1: 0.364 u_423_2: 0.636 
u_424_1: 0.364 u_424_2: 0.636 
u_425_1: 0.286 u_425_2: 0.714 
u_426_1: 0.333 u_426_2: 0.667 
u_427_1: 0.333 u_427_2: 0.667 
u_428_1: 0.263 u_428_2: 0.737 
u_429_1: 0.462 u_429_2: 0.538 
u_430_1: 0.400 u_430_2: 0.600 
u_431_1: 0.417 u_431_2: 0.583 
u_432_1: 0.400 u_432_2: 0.600 
u_433_1: 0.400 u_433_2: 0.600 
u_434_1: 0.476 u_434_2: 0.524 
u_435_1: 0.556 u_435_2: 0.444 
u_436_1: 0.556 u_436_2: 0.444 
u_437_1: 0.474 u_437_2: 0.526 
u_438_1: 0.474 u_438_2: 0.526 
u_439_1: 0.478 u_439_2: 0.522 
u_440_1: 0.500 u_440_2: 0.500 
u_441_1: 0.560 u_441_2: 0.440 
u_442_1: 0.565 u_442_2: 0.435 
u_443_1: 0.455 u_443_2: 0.545 
u_444_1: 0.519 u_444_2: 0.481 
u_445_1: 0.600 u_445_2: 0.400 
u_446_1: 0.300 u_446_2: 0.700 
u_447_1: 0.455 u_447_2: 0.545 
u_448_1: 0.444 u_448_2: 0.556 
u_449_1: 0.444 u_449_2: 0.556 
u_450_1: 0.455 u_450_2: 0.545 
u_451_1: 0.391 u_451_2: 0.609 
u_452_1: 0.391 u_452_2: 0.609 
u_453_1: 0.417 u_453_2: 0.583 
u_454_1: 0.538 u_454_2: 0.462 
u_455_1: 0.483 u_455_2: 0.517 
u_456_1: 0.545 u_456_2: 0.455 
u_457_1: 0.500 u_457_2: 0.500 
u_458_1: 0.444 u_458_2: 0.556 
u_459_1: 0.400 u_459_2: 0.600 
u_460_1: 0.400 u_460_2: 0.600 
u_461_1: 0.545 u_461_2: 0.455 
u_462_1: 0.545 u_462_2: 0.455 
u_463_1: 0.476 u_463_2: 0.524 
u_464_1: 0.476 u_464_2: 0.524 
u_465_1: 0.480 u_465_2: 0.520 
u_466_1: 0.565 u_466_2: 0.435 
u_467_1: 0.600 u_467_2: 0.400 
u_468_1: 0.684 u_468_2: 0.316 
u_469_1: 0.636 u_469_2: 0.364 
u_470_1: 0.667 u_470_2: 0.333 
u_471_1: 0.583 u_471_2: 0.417 
u_472_1: 0.600 u_472_2: 0.400 
u_473_1: 0.300 u_473_2: 0.700 
u_474_1: 0.455 u_474_2: 0.545 
u_475_1: 0.455 u_475_2: 0.545 
u_476_1: 0.462 u_476_2: 0.538 
u_477_1: 0.400 u_477_2: 0.600 
u_478_1: 0.400 u_478_2: 0.600 
u_479_1: 0.545 u_479_2: 0.455 
u_480_1: 0.667 u_480_2: 0.333 
u_481_1: 0.583 u_481_2: 0.417 
u_482_1: 0.600 u_482_2: 0.400 
u_483_1: 0.556 u_483_2: 0.444 
u_484_1: 0.583 u_484_2: 0.417 
u_485_1: 0.500 u_485_2: 0.500 
u_486_1: 0.500 u_486_2: 0.500 
u_487_1: 0.650 u_487_2: 0.350 
u_488_1: 0.579 u_488_2: 0.421 
u_489_1: 0.421 u_489_2: 0.579 
u_490_1: 0.571 u_490_2: 0.429 
u_491_1: 0.577 u_491_2: 0.423 
u_492_1: 0.520 u_492_2: 0.480 
u_493_1: 0.542 u_493_2: 0.458 
u_494_1: 0.389 u_494_2: 0.611 
u_495_1: 0.550 u_495_2: 0.450 
u_496_1: 0.500 u_496_2: 0.500 
u_497_1: 0.500 u_497_2: 0.500 
u_498_1: 0.500 u_498_2: 0.500 
u_499_1: 0.429 u_499_2: 0.571 
u_500_1: 0.650 u_500_2: 0.350 
u_501_1: 0.571 u_501_2: 0.429 
u_502_1: 0.682 u_502_2: 0.318 
u_503_1: 0.619 u_503_2: 0.381 
u_504_1: 0.722 u_504_2: 0.278 
u_505_1: 0.789 u_505_2: 0.211 
u_506_1: 0.632 u_506_2: 0.368 
u_507_1: 0.762 u_507_2: 0.238 
u_508_1: 0.667 u_508_2: 0.333 
u_509_1: 0.696 u_509_2: 0.304 
u_510_1: 0.750 u_510_2: 0.250 
u_511_1: 0.591 u_511_2: 0.409 
u_512_1: 0.750 u_512_2: 0.250 
u_513_1: 0.652 u_513_2: 0.348 
u_514_1: 0.640 u_514_2: 0.360 
u_515_1: 0.583 u_515_2: 0.417 
u_516_1: 0.682 u_516_2: 0.318 
u_517_1: 0.550 u_517_2: 0.450 
u_518_1: 0.591 u_518_2: 0.409 
u_519_1: 0.611 u_519_2: 0.389 
u_520_1: 0.750 u_520_2: 0.250 
u_521_1: 0.652 u_521_2: 0.348 
u_522_1: 0.640 u_522_2: 0.360 
u_523_1: 0.583 u_523_2: 0.417 
u_524_1: 0.625 u_524_2: 0.375 
u_525_1: 0.565 u_525_2: 0.435 
u_526_1: 0.560 u_526_2: 0.440 
u_527_1: 0.318 u_527_2: 0.682 
u_528_1: 0.318 u_528_2: 0.682 
u_529_1: 0.238 u_529_2: 0.762 
u_530_1: 0.278 u_530_2: 0.722 
u_531_1: 0.278 u_531_2: 0.722 
u_532_1: 0.211 u_532_2: 0.789 
u_533_1: 0.423 u_533_2: 0.577 
u_534_1: 0.375 u_534_2: 0.625 
u_535_1: 0.350 u_535_2: 0.650 
u_536_1: 0.350 u_536_2: 0.650 
u_537_1: 0.500 u_537_2: 0.500 
u_538_1: 0.429 u_538_2: 0.571 
u_539_1: 0.500 u_539_2: 0.500 
u_540_1: 0.500 u_540_2: 0.500 
u_541_1: 0.421 u_541_2: 0.579 
u_542_1: 0.421 u_542_2: 0.579 
u_543_1: 0.435 u_543_2: 0.565 
u_544_1: 0.458 u_544_2: 0.542 
u_545_1: 0.520 u_545_2: 0.480 
u_546_1: 0.522 u_546_2: 0.478 
u_547_1: 0.409 u_547_2: 0.591 
u_548_1: 0.542 u_548_2: 0.458 
u_549_1: 0.481 u_549_2: 0.519 
u_550_1: 0.550 u_550_2: 0.450 
u_551_1: 0.250 u_551_2: 0.750 
u_552_1: 0.409 u_552_2: 0.591 
u_553_1: 0.389 u_553_2: 0.611 
u_554_1: 0.389 u_554_2: 0.611 
u_555_1: 0.409 u_555_2: 0.591 
u_556_1: 0.348 u_556_2: 0.652 
u_557_1: 0.348 u_557_2: 0.652 
u_558_1: 0.500 u_558_2: 0.500 
u_559_1: 0.448 u_559_2: 0.552 
u_560_1: 0.500 u_560_2: 0.500 
u_561_1: 0.464 u_561_2: 0.536 
u_562_1: 0.407 u_562_2: 0.593 
u_563_1: 0.350 u_563_2: 0.650 
u_564_1: 0.350 u_564_2: 0.650 
u_565_1: 0.500 u_565_2: 0.500 
u_566_1: 0.500 u_566_2: 0.500 
u_567_1: 0.429 u_567_2: 0.571 
u_568_1: 0.429 u_568_2: 0.571 
u_569_1: 0.440 u_569_2: 0.560 
u_570_1: 0.522 u_570_2: 0.478 
u_571_1: 0.550 u_571_2: 0.450 
u_572_1: 0.632 u_572_2: 0.368 
u_573_1: 0.591 u_573_2: 0.409 
u_574_1: 0.611 u_574_2: 0.389 
u_575_1: 0.542 u_575_2: 0.458 
u_576_1: 0.560 u_576_2: 0.440 
u_577_1: 0.250 u_577_2: 0.750 
u_578_1: 0.409 u_578_2: 0.591 
u_579_1: 0.409 u_579_2: 0.591 
u_580_1: 0.423 u_580_2: 0.577 
u_581_1: 0.360 u_581_2: 0.640 
u_582_1: 0.360 u_582_2: 0.640 
u_583_1: 0.500 u_583_2: 0.500 
u_584_1: 0.611 u_584_2: 0.389 
u_585_1: 0.542 u_585_2: 0.458 
u_586_1: 0.560 u_586_2: 0.440 
u_587_1: 0.519 u_587_2: 0.481 
u_588_1: 0.542 u_588_2: 0.458 
u_589_1: 0.278 u_589_2: 0.722 
u_590_1: 0.423 u_590_2: 0.577 
u_591_1: 0.350 u_591_2: 0.650 
u_592_1: 0.500 u_592_2: 0.500 
u_593_1: 0.500 u_593_2: 0.500 
u_594_1: 0.500 u_594_2: 0.500 
u_595_1: 0.500 u_595_2: 0.500 
u_596_1: 0.435 u_596_2: 0.565 
u_597_1: 0.435 u_597_2: 0.565 
u_598_1: 0.458 u_598_2: 0.542 
u_599_1: 0.577 u_599_2: 0.423 
u_600_1: 0.517 u_600_2: 0.483 
u_601_1: 0.536 u_601_2: 0.464 
u_602_1: 0.481 u_602_2: 0.519 
u_603_1: 0.409 u_603_2: 0.591 
u_604_1: 0.409 u_604_2: 0.591 
u_605_1: 0.348 u_605_2: 0.652 
u_606_1: 0.500 u_606_2: 0.500 
u_607_1: 0.448 u_607_2: 0.552 
u_608_1: 0.464 u_608_2: 0.536 
u_609_1: 0.350 u_609_2: 0.650 
u_610_1: 0.500 u_610_2: 0.500 
u_611_1: 0.500 u_611_2: 0.500 
u_612_1: 0.500 u_612_2: 0.500 
u_613_1: 0.440 u_613_2: 0.560 
u_614_1: 0.440 u_614_2: 0.560 
u_615_1: 0.591 u_615_2: 0.409 
u_616_1: 0.722 u_616_2: 0.278 
u_617_1: 0.625 u_617_2: 0.375 
u_618_1: 0.640 u_618_2: 0.360 
u_619_1: 0.593 u_619_2: 0.407 
u_620_1: 0.625 u_620_2: 0.375 
u_621_1: 0.423 u_621_2: 0.577 
u_622_1: 0.423 u_622_2: 0.577 
u_623_1: 0.360 u_623_2: 0.640 
u_624_1: 0.593 u_624_2: 0.407 
u_625_1: 0.625 u_625_2: 0.375 
u_626_1: 0.577 u_626_2: 0.423 
u_627_1: 0.556 u_627_2: 0.444 
u_628_1: 0.471 u_628_2: 0.529 
u_629_1: 0.474 u_629_2: 0.526 
u_630_1: 0.500 u_630_2: 0.500 
u_631_1: 0.500 u_631_2: 0.500 
u_632_1: 0.636 u_632_2: 0.364 
u_633_1: 0.636 u_633_2: 0.364 
u_634_1: 0.571 u_634_2: 0.429 
u_635_1: 0.565 u_635_2: 0.435 
u_636_1: 0.565 u_636_2: 0.435 
u_637_1: 0.556 u_637_2: 0.444 
u_638_1: 0.455 u_638_2: 0.545 
u_639_1: 0.600 u_639_2: 0.400 
u_640_1: 0.522 u_640_2: 0.478 
u_641_1: 0.625 u_641_2: 0.375 
u_642_1: 0.667 u_642_2: 0.333 
u_643_1: 0.667 u_643_2: 0.333 
u_644_1: 0.700 u_644_2: 0.300 
u_645_1: 0.700 u_645_2: 0.300 
u_646_1: 0.762 u_646_2: 0.238 
u_647_1: 0.739 u_647_2: 0.261 
u_648_1: 0.667 u_648_2: 0.333 
u_649_1: 0.500 u_649_2: 0.500 
u_650_1: 0.500 u_650_2: 0.500 
u_651_1: 0.571 u_651_2: 0.429 
u_652_1: 0.583 u_652_2: 0.417 
u_653_1: 0.583 u_653_2: 0.417 
u_654_1: 0.571 u_654_2: 0.429 
u_655_1: 0.600 u_655_2: 0.400 
u_656_1: 0.727 u_656_2: 0.273 
u_657_1: 0.630 u_657_2: 0.370 
u_658_1: 0.630 u_658_2: 0.370 
u_659_1: 0.545 u_659_2: 0.455 
u_660_1: 0.609 u_660_2: 0.391 
u_661_1: 0.444 u_661_2: 0.556 
u_662_1: 0.417 u_662_2: 0.583 
u_663_1: 0.440 u_663_2: 0.560 
u_664_1: 0.500 u_664_2: 0.500 
u_665_1: 0.600 u_665_2: 0.400 
u_666_1: 0.600 u_666_2: 0.400 
u_667_1: 0.583 u_667_2: 0.417 
u_668_1: 0.727 u_668_2: 0.273 
u_669_1: 0.640 u_669_2: 0.360 
u_670_1: 0.640 u_670_2: 0.360 
u_671_1: 0.478 u_671_2: 0.522 
u_672_1: 0.462 u_672_2: 0.538 
u_673_1: 0.263 u_673_2: 0.737 
u_674_1: 0.333 u_674_2: 0.667 
u_675_1: 0.261 u_675_2: 0.739 
u_676_1: 0.381 u_676_2: 0.619 
u_677_1: 0.391 u_677_2: 0.609 
u_678_1: 0.346 u_678_2: 0.654 
u_679_1: 0.273 u_679_2: 0.727 
u_680_1: 0.364 u_680_2: 0.636 
u_681_1: 0.500 u_681_2: 0.500 
u_682_1: 0.500 u_682_2: 0.500 
u_683_1: 0.571 u_683_2: 0.429 
u_684_1: 0.429 u_684_2: 0.571 
u_685_1: 0.300 u_685_2: 0.700 
u_686_1: 0.273 u_686_2: 0.727 
u_687_1: 0.370 u_687_2: 0.630 
u_688_1: 0.400 u_688_2: 0.600 
u_689_1: 0.360 u_689_2: 0.640 
u_690_1: 0.423 u_690_2: 0.577 
u_691_1: 0.471 u_691_2: 0.529 
u_692_1: 0.500 u_692_2: 0.500 
u_693_1: 0.500 u_693_2: 0.500 
u_694_1: 0.435 u_694_2: 0.565 
u_695_1: 0.565 u_695_2: 0.435 
u_696_1: 0.500 u_696_2: 0.500 
u_697_1: 0.455 u_697_2: 0.545 
u_698_1: 0.583 u_698_2: 0.417 
u_699_1: 0.417 u_699_2: 0.583 
u_700_1: 0.370 u_700_2: 0.630 
u_701_1: 0.423 u_701_2: 0.577 
u_702_1: 0.455 u_702_2: 0.545 
u_703_1: 0.385 u_703_2: 0.615 
u_704_1: 0.444 u_704_2: 0.556 
u_705_1: 0.440 u_705_2: 0.560 
u_706_1: 0.333 u_706_2: 0.667 
u_707_1: 0.333 u_707_2: 0.667 
u_708_1: 0.360 u_708_2: 0.640 
u_709_1: 0.400 u_709_2: 0.600 
u_710_1: 0.500 u_710_2: 0.500 
u_711_1: 0.500 u_711_2: 0.500 
u_712_1: 0.500 u_712_2: 0.500 
u_713_1: 0.636 u_713_2: 0.364 
u_714_1: 0.560 u_714_2: 0.440 
u_715_1: 0.560 u_715_2: 0.440 
u_716_1: 0.391 u_716_2: 0.609 
u_717_1: 0.385 u_717_2: 0.615 
u_718_1: 0.556 u_718_2: 0.444 
u_719_1: 0.476 u_719_2: 0.524 
u_720_1: 0.500 u_720_2: 0.500 
u_721_1: 0.500 u_721_2: 0.500 
u_722_1: 0.500 u_722_2: 0.500 
u_723_1: 0.636 u_723_2: 0.364 
u_724_1: 0.556 u_724_2: 0.444 
u_725_1: 0.556 u_725_2: 0.444 
u_726_1: 0.522 u_726_2: 0.478 
u_727_1: 0.625 u_727_2: 0.375 
u_728_1: 0.667 u_728_2: 0.333 
u_729_1: 0.500 u_729_2: 0.500 
u_730_1: 0.571 u_730_2: 0.429 
u_731_1: 0.571 u_731_2: 0.429 
u_732_1: 0.571 u_732_2: 0.429 
u_733_1: 0.630 u_733_2: 0.370 
u_734_1: 0.545 u_734_2: 0.455 
u_735_1: 0.391 u_735_2: 0.609 
u_736_1: 0.385 u_736_2: 0.615 
u_737_1: 0.583 u_737_2: 0.417 
u_738_1: 0.583 u_738_2: 0.417 
u_739_1: 0.640 u_739_2: 0.360 
u_740_1: 0.417 u_740_2: 0.583 
u_741_1: 0.368 u_741_2: 0.632 
u_742_1: 0.417 u_742_2: 0.583 
u_743_1: 0.348 u_743_2: 0.652 
u_744_1: 0.400 u_744_2: 0.600 
u_745_1: 0.476 u_745_2: 0.524 
u_746_1: 0.333 u_746_2: 0.667 
u_747_1: 0.478 u_747_2: 0.522 
u_748_1: 0.423 u_748_2: 0.577 
u_749_1: 0.364 u_749_2: 0.636 
u_750_1: 0.500 u_750_2: 0.500 
u_751_1: 0.500 u_751_2: 0.500 
u_752_1: 0.667 u_752_2: 0.333 
u_753_1: 0.579 u_753_2: 0.421 
u_754_1: 0.565 u_754_2: 0.435 
u_755_1: 0.455 u_755_2: 0.545 
u_756_1: 0.583 u_756_2: 0.417 
u_757_1: 0.522 u_757_2: 0.478 
u_758_1: 0.600 u_758_2: 0.400 
u_759_1: 0.600 u_759_2: 0.400 
u_760_1: 0.667 u_760_2: 0.333 
u_761_1: 0.524 u_761_2: 0.476 
u_762_1: 0.652 u_762_2: 0.348 
u_763_1: 0.545 u_763_2: 0.455 
u_764_1: 0.538 u_764_2: 0.462 
u_765_1: 0.700 u_765_2: 0.300 
u_766_1: 0.600 u_766_2: 0.400 
u_767_1: 0.600 u_767_2: 0.400 
u_768_1: 0.400 u_768_2: 0.600 
u_769_1: 0.364 u_769_2: 0.636 
u_770_1: 0.500 u_770_2: 0.500 
u_771_1: 0.444 u_771_2: 0.556 
u_772_1: 0.500 u_772_2: 0.500 
u_773_1: 0.440 u_773_2: 0.560 
u_774_1: 0.500 u_774_2: 0.500 
u_775_1: 0.500 u_775_2: 0.500 
u_776_1: 0.455 u_776_2: 0.545 
u_777_1: 0.583 u_777_2: 0.417 
u_778_1: 0.583 u_778_2: 0.417 
u_779_1: 0.522 u_779_2: 0.478 
u_780_1: 0.524 u_780_2: 0.476 
u_781_1: 0.652 u_781_2: 0.348 
u_782_1: 0.556 u_782_2: 0.444 
u_783_1: 0.700 u_783_2: 0.300 
u_784_1: 0.727 u_784_2: 0.273 
u_785_1: 0.545 u_785_2: 0.455 
u_786_1: 0.667 u_786_2: 0.333 
u_787_1: 0.364 u_787_2: 0.636 
u_788_1: 0.500 u_788_2: 0.500 
u_789_1: 0.444 u_789_2: 0.556 
u_790_1: 0.500 u_790_2: 0.500 
u_791_1: 0.440 u_791_2: 0.560 
u_792_1: 0.500 u_792_2: 0.500 
u_793_1: 0.600 u_793_2: 0.400 
u_794_1: 0.583 u_794_2: 0.417 
u_795_1: 0.652 u_795_2: 0.348 
u_796_1: 0.545 u_796_2: 0.455 
u_797_1: 0.667 u_797_2: 0.333 
u_798_1: 0.615 u_798_2: 0.385 
u_799_1: 0.615 u_799_2: 0.385 
u_800_1: 0.680 u_800_2: 0.320 
u_801_1: 0.462 u_801_2: 0.538 
u_802_1: 0.519 u_802_2: 0.481 
u_803_1: 0.520 u_803_2: 0.480 
u_804_1: 0.273 u_804_2: 0.727 
u_805_1: 0.273 u_805_2: 0.727 
u_806_1: 0.348 u_806_2: 0.652 
u_807_1: 0.333 u_807_2: 0.667 
u_808_1: 0.333 u_808_2: 0.667 
u_809_1: 0.500 u_809_2: 0.500 
u_810_1: 0.579 u_810_2: 0.421 
u_811_1: 0.364 u_811_2: 0.636 
u_812_1: 0.500 u_812_2: 0.500 
u_813_1: 0.500 u_813_2: 0.500 
u_814_1: 0.588 u_814_2: 0.412 
u_815_1: 0.412 u_815_2: 0.588 
u_816_1: 0.412 u_816_2: 0.588 
u_817_1: 0.429 u_817_2: 0.571 
u_818_1: 0.579 u_818_2: 0.421 
u_819_1: 0.500 u_819_2: 0.500 
u_820_1: 0.500 u_820_2: 0.500 
u_821_1: 0.455 u_821_2: 0.545 
u_822_1: 0.455 u_822_2: 0.545 
u_823_1: 0.522 u_823_2: 0.478 
u_824_1: 0.400 u_824_2: 0.600 
u_825_1: 0.400 u_825_2: 0.600 
u_826_1: 0.417 u_826_2: 0.583 
u_827_1: 0.545 u_827_2: 0.455 
u_828_1: 0.480 u_828_2: 0.520 
u_829_1: 0.480 u_829_2: 0.520 
u_830_1: 0.478 u_830_2: 0.522 
u_831_1: 0.478 u_831_2: 0.522 
u_832_1: 0.542 u_832_2: 0.458 
u_833_1: 0.556 u_833_2: 0.444 
u_834_1: 0.556 u_834_2: 0.444 
u_835_1: 0.632 u_835_2: 0.368 
u_836_1: 0.444 u_836_2: 0.556 
u_837_1: 0.444 u_837_2: 0.556 
u_838_1: 0.455 u_838_2: 0.545 
u_839_1: 0.600 u_839_2: 0.400 
u_840_1: 0.522 u_840_2: 0.478 
u_841_1: 0.522 u_841_2: 0.478 
u_842_1: 0.524 u_842_2: 0.476 
u_843_1: 0.524 u_843_2: 0.476 
u_844_1: 0.591 u_844_2: 0.409 
u_845_1: 0.500 u_845_2: 0.500 
u_846_1: 0.500 u_846_2: 0.500 
u_847_1: 0.560 u_847_2: 0.440 
u_848_1: 0.364 u_848_2: 0.636 
u_849_1: 0.364 u_849_2: 0.636 
u_850_1: 0.600 u_850_2: 0.400 
u_851_1: 0.273 u_851_2: 0.727 
u_852_1: 0.417 u_852_2: 0.583 
u_853_1: 0.370 u_853_2: 0.630 
u_854_1: 0.400 u_854_2: 0.600 
u_855_1: 0.360 u_855_2: 0.640 
u_856_1: 0.423 u_856_2: 0.577 
u_857_1: 0.500 u_857_2: 0.500 
u_858_1: 0.500 u_858_2: 0.500 
u_859_1: 0.667 u_859_2: 0.333 
u_860_1: 0.565 u_860_2: 0.435 
u_861_1: 0.565 u_861_2: 0.435 
u_862_1: 0.455 u_862_2: 0.545 
u_863_1: 0.538 u_863_2: 0.462 
u_864_1: 0.600 u_864_2: 0.400 
u_865_1: 0.385 u_865_2: 0.615 
u_866_1: 0.444 u_866_2: 0.556 
u_867_1: 0.440 u_867_2: 0.560 
u_868_1: 0.500 u_868_2: 0.500 
u_869_1: 0.455 u_869_2: 0.545 
u_870_1: 0.583 u_870_2: 0.417 
u_871_1: 0.700 u_871_2: 0.300 
u_872_1: 0.385 u_872_2: 0.615 
u_873_1: 0.444 u_873_2: 0.556 
u_874_1: 0.440 u_874_2: 0.560 
u_875_1: 0.583 u_875_2: 0.417 
u_876_1: 0.583 u_876_2: 0.417 
u_877_1: 0.652 u_877_2: 0.348 
u_878_1: 0.615 u_878_2: 0.385 
u_879_1: 0.462 u_879_2: 0.538 
u_880_1: 0.389 u_880_2: 0.611 
u_881_1: 0.375 u_881_2: 0.625 
u_882_1: 0.400 u_882_2: 0.600 
u_883_1: 0.450 u_883_2: 0.550 
u_884_1: 0.550 u_884_2: 0.450 
u_885_1: 0.550 u_885_2: 0.450 
u_886_1: 0.542 u_886_2: 0.458 
u_887_1: 0.682 u_887_2: 0.318 
u_888_1: 0.600 u_888_2: 0.400 
u_889_1: 0.600 u_889_2: 0.400 
u_890_1: 0.435 u_890_2: 0.565 
u_891_1: 0.423 u_891_2: 0.577 
u_892_1: 0.438 u_892_2: 0.563 
u_893_1: 0.524 u_893_2: 0.476 
u_894_1: 0.542 u_894_2: 0.458 
u_895_1: 0.542 u_895_2: 0.458 
u_896_1: 0.536 u_896_2: 0.464 
u_897_1: 0.550 u_897_2: 0.450 
u_898_1: 0.682 u_898_2: 0.318 
u_899_1: 0.593 u_899_2: 0.407 
u_900_1: 0.593 u_900_2: 0.407 
u_901_1: 0.500 u_901_2: 0.500 
u_902_1: 0.565 u_902_2: 0.435 
u_903_1: 0.708 u_903_2: 0.292 
u_904_1: 0.550 u_904_2: 0.450 
u_905_1: 0.607 u_905_2: 0.393 
u_906_1: 0.607 u_906_2: 0.393 
u_907_1: 0.667 u_907_2: 0.333 
u_908_1: 0.591 u_908_2: 0.409 
u_909_1: 0.435 u_909_2: 0.565 
u_910_1: 0.423 u_910_2: 0.577 
u_911_1: 0.625 u_911_2: 0.375 
u_912_1: 0.625 u_912_2: 0.375 
u_913_1: 0.680 u_913_2: 0.320 
u_914_1: 0.458 u_914_2: 0.542 
u_915_1: 0.227 u_915_2: 0.773 
u_916_1: 0.333 u_916_2: 0.667 
u_917_1: 0.350 u_917_2: 0.650 
u_918_1: 0.320 u_918_2: 0.680 
u_919_1: 0.385 u_919_2: 0.615 
u_920_1: 0.346 u_920_2: 0.654 
u_921_1: 0.400 u_921_2: 0.600 
u_922_1: 0.438 u_922_2: 0.563 
u_923_1: 0.409 u_923_2: 0.591 
u_924_1: 0.542 u_924_2: 0.458 
u_925_1: 0.346 u_925_2: 0.654 
u_926_1: 0.407 u_926_2: 0.593 
u_927_1: 0.400 u_927_2: 0.600 
u_928_1: 0.423 u_928_2: 0.577 
u_929_1: 0.348 u_929_2: 0.652 
u_930_1: 0.346 u_930_2: 0.654 
u_931_1: 0.542 u_931_2: 0.458 
u_932_1: 0.542 u_932_2: 0.458 
u_933_1: 0.600 u_933_2: 0.400 
u_934_1: 0.375 u_934_2: 0.625 
u_935_1: 0.450 u_935_2: 0.550 
u_936_1: 0.524 u_936_2: 0.476 
u_937_1: 0.536 u_937_2: 0.464 
u_938_1: 0.536 u_938_2: 0.464 
u_939_1: 0.593 u_939_2: 0.407 
u_940_1: 0.500 u_940_2: 0.500 
u_941_1: 0.550 u_941_2: 0.450 
u_942_1: 0.607 u_942_2: 0.393 
u_943_1: 0.500 u_943_2: 0.500 
u_944_1: 0.600 u_944_2: 0.400 
u_945_1: 0.600 u_945_2: 0.400 
u_946_1: 0.375 u_946_2: 0.625 
u_947_1: 0.364 u_947_2: 0.636 
u_948_1: 0.500 u_948_2: 0.500 
u_949_1: 0.444 u_949_2: 0.556 
u_950_1: 0.400 u_950_2: 0.600 
u_951_1: 0.500 u_951_2: 0.500 
u_952_1: 0.500 u_952_2: 0.500 
u_953_1: 0.444 u_953_2: 0.556 
u_954_1: 0.600 u_954_2: 0.400 
u_955_1: 0.571 u_955_2: 0.429 
u_956_1: 0.500 u_956_2: 0.500 
u_957_1: 0.625 u_957_2: 0.375 
u_958_1: 0.500 u_958_2: 0.500 

|--------------|
|Hard Partition|
|--------------|

Partition 1
xxxxooobb(1) xxxoxooxo(1) xxxoxooox(1) xxxoxoobb(1) xxxoxobob(1) xxxoxobbo(1) 
xxxoxboob(1) xxxoxbobo(1) xxxooxoxo(1) xxxooxoox(1) xxxooxobb(1) xxxooboxb(1) 
xxxoobobx(1) xxxoobbxo(1) xxxoobbox(1) xxxoobbbb(1) xxxobxoob(1) xxxoboxob(1) 
xxxoboxbo(1) xxxobooxb(1) xxxoboobx(1) xxxobobxo(1) xxxobobox(1) xxxobobbb(1) 
xxxobboxo(1) xxxobboox(1) xxxobbobb(1) xxxobbbob(1) xxxobbbbo(1) xxxbxooob(1) 
xxxboooxb(1) xxxbooobx(1) xxxboobxo(1) xxxboobox(1) xxxboobbb(1) xxxboboxo(1) 
xxxboboox(1) xxxbobobb(1) xxxbbooxo(1) xxxbbooox(1) xxxbboobb(1) xxoxxooox(1) 
xxoxooxox(1) xxoxooxbb(1) xxooxxoxo(1) xxooxxoox(1) xxooxoxox(1) xxooxooxx(1) 
xxooxobxb(1) xxooxobbx(1) xxooxboxb(1) xxooxbobx(1) xxooxbbxo(1) xxooxbbox(1) 
xxobxooxb(1) xxobxoobx(1) xxobxobox(1) xxobxboxo(1) xxobxboox(1) xxboxooxb(1) 
xxboxoobx(1) xxboxobxo(1) xxboxobox(1) xxboxboxo(1) xxboxboox(1) xxbbxooxo(1) 
xxbbxooox(1) xoxoxooxx(1) xoxoxobbx(1) xoxoxbobx(1) xoxooxoxx(1) xooxxooxx(1) 
xooxxobbx(1) xooxxbobx(1) xooxooxxx(1) xoooxxoxx(1) xoooxxbbx(1) xoooxoxxx(1) 
xoooxbxbx(1) xoooxbbxx(1) xooooxxxx(1) xooobbxxx(1) xoobxxobx(1) xoobxoxbx(1) 
xoobxobxx(1) xoobxboxx(1) xoobxbbbx(1) xoobobxxx(1) xoobboxxx(1) xobxxoobx(1) 
xoboxxobx(1) xoboxoxbx(1) xoboxobxx(1) xoboxboxx(1) xoboxbbbx(1) xoboobxxx(1) 
xoboboxxx(1) xobbxooxx(1) xobbxobbx(1) xobbxbobx(1) xobbooxxx(1) xbxoxoobx(1) 
xbxoxobox(1) xbxoxboox(1) xbxooxobx(1) xbxbxooox(1) xboxxoobx(1) xboxxobox(1) 
xboxxboox(1) xboxooxxb(1) xboxooxbx(1) xboxboxbb(1) xbooxxobx(1) xbooxxbox(1) 
xbooxoxbx(1) xbooxobxx(1) xbooxbxox(1) xbooxboxx(1) xbooxbbbx(1) xbooobxxx(1) 
xbooboxxx(1) xbobxxoox(1) xbobxoxox(1) xbobxooxx(1) xbobxobbx(1) xbobxbobx(1) 
xbobxbbox(1) xbobooxxx(1) xbbxxooox(1) xbboxxoox(1) xbboxoxox(1) xbboxooxx(1) 
xbboxobbx(1) xbboxbobx(1) xbboxbbox(1) xbbbxoobx(1) xbbbxobox(1) xbbbxboox(1) 
oxxoxoxxo(1) oxxoxoxox(1) oxxoxoxbb(1) oxxoxobxb(1) oxxoxbbxo(1) oxxooxxox(1) 
oxxooxbbx(1) oxxobxbox(1) oxxbxooxb(1) oxxbxobxo(1) oxxbxboxo(1) oxxboxobx(1) 
oxxbbxoox(1) oxoxxxoxo(1) oxoxxxoox(1) oxoxxxobb(1) oxoxxooxx(1) oxoxxobxb(1) 
oxoxxboxb(1) oxoxxbbxo(1) oxoxooxxx(1) oxooxxxxo(1) oxooxxbxb(1) oxooxoxxx(1) 
oxooxbxxb(1) oxooxbbxx(1) oxoooxxxx(1) oxoobbxxx(1) oxobxxoxb(1) oxobxxbxo(1) 
oxobxoxxb(1) oxobxobxx(1) oxobxbxxo(1) oxobxboxx(1) oxobxbbxb(1) oxobobxxx(1) 
oxobboxxx(1) oxbxxooxb(1) oxbxxobxo(1) oxbxxboxo(1) oxboxxbxo(1) oxboxoxxb(1) 
oxboxobxx(1) oxboxbxxo(1) oxboxbbxb(1) oxboobxxx(1) oxboboxxx(1) oxbbxxoxo(1) 
oxbbxoxxo(1) oxbbxooxx(1) oxbbxobxb(1) oxbbxboxb(1) oxbbxbbxo(1) oxbbooxxx(1) 
ooxoxoxxx(1) ooxobxbxx(1) ooxobbxxx(1) ooxbbxoxx(1) ooxbboxxx(1) ooboxbxxx(1) 
oobobxxxx(1) oobbxoxxx(1) oobbbbxxx(1) obxoxoxxb(1) obxoxoxbx(1) obxooxxbx(1) 
obxooxbxx(1) obxoobxxx(1) obxobxbbx(1) obxoboxxx(1) obxboxoxx(1) obxbooxxx(1) 
oboxxxoxb(1) oboxxxobx(1) oboxobxxx(1) oboxboxxx(1) obooxbxxx(1) oboobxxxx(1) 
obobxoxxx(1) oboboxxxx(1) obobbbxxx(1) obbxooxxx(1) obboxoxxx(1) obbooxxxx(1) 
obbobbxxx(1) obbbobxxx(1) obbbboxxx(1) bxxoxoxob(1) bxxoxooxb(1) bxxoxobxo(1) 
bxxoxboxo(1) bxxooxobx(1) bxxooxbox(1) bxxobxoox(1) bxxbxooxo(1) bxxboxoox(1) 
bxoxxooxb(1) bxoxxboxo(1) bxooxxoxb(1) bxooxxbxo(1) bxooxoxxb(1) bxooxobxx(1) 
bxooxbxxo(1) bxooxboxx(1) bxooxbbxb(1) bxooobxxx(1) bxooboxxx(1) bxobxxoxo(1) 
bxobxooxx(1) bxobxobxb(1) bxobxboxb(1) bxobxbbxo(1) bxobooxxx(1) bxbxxooxo(1) 
bxboxxoxo(1) bxboxoxxo(1) bxboxooxx(1) bxboxobxb(1) bxboxboxb(1) bxboxbbxo(1) 
bxbbxooxb(1) bxbbxobxo(1) bxbbxboxo(1) boxoxoxxb(1) boxooxbxx(1) boxoobxxx(1) 
boxobxoxx(1) boxoboxxx(1) boxbooxxx(1) booxobxxx(1) booxboxxx(1) boooxbxxx(1) 
booobxxxx(1) boobxoxxx(1) booboxxxx(1) boobbbxxx(1) bobxooxxx(1) boboxoxxx(1) 
bobooxxxx(1) bobobbxxx(1) bobbobxxx(1) bobbboxxx(1) bbxoxoxbb(1) bbxooxoxx(1) 
bbxooxbbx(1) bbxobxobx(1) bboxxxoxo(1) bboxxxoox(1) bboxooxxx(1) bbooxoxxx(1) 
bboooxxxx(1) bboobbxxx(1) bbobobxxx(1) bbobboxxx(1) bbboobxxx(1) bbboboxxx(1) 
bbbbooxxx(1) xxoxxoobo(0) xxoxoooxb(0) xxoxooobx(0) xxoxoobxo(0) xxoxoboxo(0) 
xxoxoboox(0) xxoxobobb(0) xxoxbooxo(0) xxoxbobbo(0) xxooxoxbo(0) xxoooxoxb(0) 
xxoooxobx(0) xxooooxxb(0) xxooooxbx(0) xxoooobxx(0) xxoooboxx(0) xxooboxxo(0) 
xxobxobbo(0) xxoboxoxo(0) xxoboxoox(0) xxoboxobb(0) xxobooxxo(0) xxoboooxx(0) 
xxoboboxb(0) xxobobobx(0) xxobboxbo(0) xxobbobxo(0) xxboooxxo(0) xxboooxox(0) 
xxboooxbb(0) xxbooooxx(0) xxbooobxb(0) xxbooobbx(0) xoxoooxxb(0) xoxoooxbx(0) 
xoxooobxx(0) xooxoxobx(0) xooxoboxx(0) xoobxoxxo(0) xooboxoxx(0) xbxoooxxo(0) 
xbxoooxox(0) xbxoooxbb(0) xbxooooxx(0) xbxooobxb(0) xbxooobbx(0) xboxxooxo(0) 
xboxoxoxo(0) xboxoxoox(0) xboxoxobb(0) xboxoooxx(0) xboxoboxb(0) xboxobobx(0) 
xboxbobxo(0) xbooxoxxo(0) xboooxoxx(0) xbobxoxbo(0) xbobxobxo(0) xboboxoxb(0) 
xboboxobx(0) xboboboxx(0) xbobboxxo(0) xbboooxxb(0) xbboooxbx(0) xbbooobxx(0) 
oxxoxxobo(0) oxxoxoobx(0) oxxoxboox(0) oxxoxbobb(0) oxxooxoxb(0) oxxooxbxo(0) 
oxxoooxxb(0) oxxoooxbx(0) oxxooobxx(0) oxxoobxxo(0) oxxooboxx(0) oxxobxoxo(0) 
oxxobxobb(0) oxxobooxx(0) oxxobboxb(0) oxxobbobx(0) oxxbooxxo(0) oxxbobbxo(0) 
oxoxxoxbo(0) oxoxoxoxb(0) oxoxoxobx(0) oxoxoxbxo(0) oxoxobxxo(0) oxoxoboxx(0) 
oxoxboxxo(0) oxooxxobx(0) oxoobxoxx(0) oxoboxxxo(0) oxoboxoxx(0) oxbxobbxo(0) 
oxboxxoox(0) oxboxxobb(0) oxboxbobx(0) oxbooxxxo(0) oxbooxoxx(0) oxbobxoxb(0) 
oxbobxobx(0) oxbobboxx(0) oxbboxbxo(0) oxbbobxxo(0) ooxoxboxx(0) oooxxoxbx(0) 
oooxxobxx(0) oooxxboxx(0) oooxxbbxb(0) oooxxbbbx(0) oooxoxbxx(0) oooxbxoxx(0) 
oooxbbbxx(0) ooooxxxxb(0) ooooxxxbx(0) ooooxxbxx(0) ooobxxoxx(0) ooobxxbxb(0) 
ooobxxbbx(0) ooobxbxxb(0) ooobxbxbx(0) ooobxbbxx(0) ooobbxxxb(0) ooobbxxbx(0) 
ooobbxbxx(0) ooboxxoxx(0) obxoxxoxo(0) obxoxooxx(0) obxoxboxb(0) obxoxbobx(0) 
obxobxoxb(0) obxobboxx(0) oboxxoxxo(0) oboxoxoxx(0) obooxxoxx(0) obboxxoxb(0) 
obboxxobx(0) obboxboxx(0) obbobxoxx(0) bxxoooxxo(0) bxxoooxox(0) bxxoooxbb(0) 
bxxooooxx(0) bxxooobxb(0) bxxooobbx(0) bxoxxobbo(0) bxoxoxoxo(0) bxoxoxoox(0) 
bxoxoxobb(0) bxoxooxxo(0) bxoxoooxx(0) bxoxoboxb(0) bxoxobobx(0) bxoxboxbo(0) 
bxoxbobxo(0) bxoooxoxx(0) bxobxoxbo(0) bxoboxoxb(0) bxoboxobx(0) bxoboboxx(0) 
bxobboxxo(0) bxboooxxb(0) bxboooxbx(0) bxbooobxx(0) booxoxoxx(0) bbxoooxxb(0) 
bbxoooxbx(0) bbxooobxx(0) bboxxobxo(0) bboxoxoxb(0) bboxoxobx(0) bboxoboxx(0) 
bbobxoxxo(0) bboboxoxx(0) xxooxxxoo(0) xxoooxxxo(0) xxoooxxox(0) oxxxxooox(0) 
oxxxoooxx(0) oxoxxoxox(0) oxoxoxxox(0) oxooxxxox(0) ooxxxooxx(0) 
Positive (X wins): 295
Negative (X doesn't win):184

Partition 2
xxxxooxoo(1) xxxxoooxo(1) xxxxoooox(1) xxxxoobob(1) xxxxoobbo(1) xxxxoboob(1) 
xxxxobobo(1) xxxxobboo(1) xxxxbooob(1) xxxxboobo(1) xxxxboboo(1) xxxoxoxoo(1) 
xxxoxbboo(1) xxxooxxoo(1) xxxooxbob(1) xxxooxbbo(1) xxxoobxob(1) xxxoobxbo(1) 
xxxobxobo(1) xxxobxboo(1) xxxobbxoo(1) xxxbxoobo(1) xxxbxoboo(1) xxxboxoob(1) 
xxxboxobo(1) xxxboxboo(1) xxxbooxob(1) xxxbooxbo(1) xxxbobxoo(1) xxxbobbob(1) 
xxxbobbbo(1) xxxbboxoo(1) xxxbbobob(1) xxxbbobbo(1) xxxbbboob(1) xxxbbbobo(1) 
xxxbbbboo(1) xxoxoxxoo(1) xxoxobxob(1) xxoxobxbo(1) xxoxboxob(1) xxoxbbxoo(1) 
xxbxooxob(1) xxbxooxbo(1) xxbxobxoo(1) xxbxboxoo(1) xoxxxoxoo(1) xoxxxooox(1) 
xoxxooxxo(1) xoxxooxbb(1) xoxxobxbo(1) xoxxboxob(1) xoxxboxbo(1) xoxxbbxoo(1) 
xoxoxxxoo(1) xoxoxxoox(1) xoxoxoxxo(1) xoxoxoxox(1) xoxoxoxbb(1) xoxoxbxob(1) 
xoxoxbxbo(1) xoxoxbbox(1) xoxooxbbx(1) xoxobxobx(1) xoxobxbox(1) xoxbxoxob(1) 
xoxbxoxbo(1) xoxbxoobx(1) xoxbxobox(1) xoxbxbxoo(1) xoxbxboox(1) xoxboxobx(1) 
xoxbbxoox(1) xooxxxxoo(1) xooxxxoxo(1) xooxxxoox(1) xooxxxobb(1) xooxxxbob(1) 
xooxxxbbo(1) xooxxoxox(1) xooxxoxbb(1) xooxxbxob(1) xooxxbxbo(1) xooxxbbox(1) 
xooxoxxxo(1) xooxoxxbb(1) xooxobxxb(1) xooxobxbx(1) xooxbxxob(1) xooxbxxbo(1) 
xooxboxxb(1) xooxboxbx(1) xooxbbxxo(1) xooxbbxox(1) xooxbbxbb(1) xoooxxxox(1) 
xoobxxbox(1) xoobxbxox(1) xobxxxoob(1) xobxxxobo(1) xobxxxboo(1) xobxxoxob(1) 
xobxxoxbo(1) xobxxobox(1) xobxxbxoo(1) xobxxboox(1) xobxoxxbo(1) xobxooxxb(1) 
xobxooxbx(1) xobxobxxo(1) xobxobxbb(1) xobxbxxoo(1) xobxboxxo(1) xobxboxox(1) 
xobxboxbb(1) xobxbbxob(1) xobxbbxbo(1) xoboxxbox(1) xoboxbxox(1) xobbxxoox(1) 
xobbxoxox(1) xobbxbbox(1) xbxxooxob(1) xbxxooxbo(1) xbxxobxoo(1) xbxxboxoo(1) 
xbxoxoxob(1) xbxoxoxbo(1) xbxoxbxoo(1) xbxooxbox(1) xbxobxoox(1) xbxbxoxoo(1) 
xbxboxoox(1) xboxxxoob(1) xboxxxobo(1) xboxxxboo(1) xboxxoxob(1) xboxxbxoo(1) 
xboxoxxob(1) xboxoxxbo(1) xboxobxxo(1) xboxobxox(1) xboxobxbb(1) xboxbxxoo(1) 
xboxboxox(1) xboxbbxob(1) xboxbbxbo(1) xbbxxoxoo(1) xbbxoxxoo(1) xbbxooxxo(1) 
xbbxooxox(1) xbbxooxbb(1) xbbxobxob(1) xbbxobxbo(1) xbbxboxob(1) xbbxboxbo(1) 
xbbxbbxoo(1) oxxxxoxoo(1) oxxxxooxo(1) oxxxoxoox(1) oxxoxxxoo(1) oxxoxbxob(1) 
oxxoxbxbo(1) oxxbxoxob(1) oxxbxoxbo(1) oxxbxbxoo(1) oxxboxbox(1) oxoxxxxoo(1) 
oxoxxxbob(1) oxoxxxbbo(1) oxbxxxoob(1) oxbxxxobo(1) oxbxxxboo(1) ooxxxxxoo(1) 
ooxxxxoxo(1) ooxxxxoox(1) ooxxxxobb(1) ooxxxxbob(1) ooxxxxbbo(1) ooxxxoxxo(1) 
ooxxxoxox(1) ooxxxoxbb(1) ooxxxbxob(1) ooxxxbxbo(1) ooxxoxoxx(1) ooxxoxbbx(1) 
ooxxooxxx(1) ooxxbxobx(1) ooxxbxbox(1) ooxoxxxxo(1) ooxoxxxox(1) ooxoxxxbb(1) 
ooxoxxbbx(1) ooxoxbxxb(1) ooxoxbxbx(1) ooxooxxxx(1) ooxobxxbx(1) ooxbxxxob(1) 
ooxbxxxbo(1) ooxbxxobx(1) ooxbxxbox(1) ooxbxoxxb(1) ooxbxoxbx(1) ooxbxbxxo(1) 
ooxbxbxox(1) ooxbxbxbb(1) ooxboxxbx(1) ooxboxbxx(1) ooxbobxxx(1) ooxbbxxox(1) 
ooxbbxbbx(1) oobxxxxob(1) oobxxxxbo(1) oobxxxoxb(1) oobxxxobx(1) oobxxxbxo(1) 
oobxxxbox(1) oobxxxbbb(1) oobxobxxx(1) oobxboxxx(1) oobboxxxx(1) obxxxxoob(1) 
obxxxxobo(1) obxxxxboo(1) obxxxoxob(1) obxxxoxbo(1) obxxxbxoo(1) obxxoxobx(1) 
obxxoxbox(1) obxxbxoox(1) obxoxxxob(1) obxoxxxbo(1) obxoxxbox(1) obxoxbxxo(1) 
obxoxbxox(1) obxoxbxbb(1) obxobxxox(1) obxbxxxoo(1) obxbxxoox(1) obxbxoxxo(1) 
obxbxoxox(1) obxbxoxbb(1) obxbxbxob(1) obxbxbxbo(1) obxboxxox(1) obxboxbbx(1) 
obxbbxobx(1) obxbbxbox(1) oboxxxxob(1) oboxxxxbo(1) oboxxxbxo(1) oboxxxbox(1) 
oboxxxbbb(1) obbxxxxoo(1) obbxxxoxo(1) obbxxxoox(1) obbxxxobb(1) obbxxxbob(1) 
obbxxxbbo(1) bxxoxoxbo(1) bxxoxbxoo(1) bxxbxoxoo(1) bxoxxxoob(1) bxoxxxobo(1) 
bxoxxxboo(1) boxxxxoob(1) boxxxxobo(1) boxxxxboo(1) boxxxoxob(1) boxxxoxbo(1) 
boxxxbxoo(1) boxxoxobx(1) boxxbxoox(1) boxoxxxob(1) boxoxxxbo(1) boxoxxobx(1) 
boxoxxbox(1) boxoxoxbx(1) boxoxbxxo(1) boxoxbxox(1) boxoxbxbb(1) boxooxxbx(1) 
boxobxxox(1) boxobxbbx(1) boxbxxxoo(1) boxbxxoox(1) boxbxoxxo(1) boxbxoxox(1) 
boxbxoxbb(1) boxbxbxob(1) boxbxbxbo(1) boxboxoxx(1) boxboxbbx(1) boxbbxobx(1) 
boxbbxbox(1) booxxxxob(1) booxxxxbo(1) booxxxoxb(1) booxxxobx(1) booxxxbxo(1) 
booxxxbox(1) booxxxbbb(1) bobxxxxoo(1) bobxxxoxo(1) bobxxxoox(1) bobxxxobb(1) 
bobxxxbob(1) bobxxxbbo(1) bbxxxoxoo(1) bbxxoxoox(1) bbxoxxxoo(1) bbxoxxoox(1) 
bbxoxoxxo(1) bbxoxoxox(1) bbxoxbxob(1) bbxoxbxbo(1) bbxooxxox(1) bbxobxbox(1) 
bbxbxoxob(1) bbxbxoxbo(1) bbxbxbxoo(1) bbxboxobx(1) bbxboxbox(1) bbxbbxoox(1) 
bboxxxxoo(1) bboxxxobb(1) bboxxxbob(1) bboxxxbbo(1) bbbxxxoob(1) bbbxxxobo(1) 
bbbxxxboo(1) xxoxxoboo(0) xxoxxbooo(0) xxoxoxoob(0) xxoxoxobo(0) xxoxbxooo(0) 
xxobxxooo(0) xxobxoxoo(0) xxbxxoooo(0) xxbxoxooo(0) xxbxbbooo(0) xxboxxooo(0) 
xxbbxbooo(0) xxbbbxooo(0) xoxxxbooo(0) xoxxoxoob(0) xoxxoxboo(0) xoxxoobox(0) 
xoxxoboox(0) xoxxobbob(0) xoxxbxooo(0) xoxooxxob(0) xoxoobxox(0) xoxbxxooo(0) 
xoxboxxoo(0) xoxboxbob(0) xoxbooxox(0) xoxbobxob(0) xoxbobbox(0) xooxxobxo(0) 
xooxoxoxb(0) xooxoxbox(0) xooboxxox(0) xobxoxoox(0) xobxoxbob(0) xobxobbox(0) 
xobooxxox(0) xobboxxob(0) xobboxbox(0) xobbobxox(0) xbxxxoooo(0) xbxxoxooo(0) 
xbxxbbooo(0) xbxoxxooo(0) xbxbxbooo(0) xbxbbxooo(0) xboxxobbo(0) xbbxxbooo(0) 
xbbxbxooo(0) xbbbxxooo(0) oxxxxbooo(0) oxxxoxobo(0) oxxxoxboo(0) oxxxooxbo(0) 
oxxxoobxo(0) oxxxobxoo(0) oxxxoboxo(0) oxxxobbbo(0) oxxxbxooo(0) oxxoxxoob(0) 
oxxooxxbo(0) oxxbxxooo(0) oxxboxxoo(0) oxxboxoxo(0) oxxboxbbo(0) oxxbobxbo(0) 
oxoxoxxbo(0) oxbxoxxoo(0) oxbxoxoxo(0) oxbxoxbbo(0) oxbxooxxo(0) oxbxobxbo(0) 
oxbboxxbo(0) ooxxoxxob(0) ooxxoxxbo(0) ooxxoxbxo(0) ooxxobxxo(0) ooxxobxox(0) 
ooxoxxoxb(0) ooxboxxxo(0) oooxxoxxb(0) oooxxbxxo(0) oooxxbxox(0) oooxxbxbb(0) 
oooxoxxxb(0) oooxoxxbx(0) oooxbxxxo(0) oooxbxxox(0) oooxbxxbb(0) oooxbxbxb(0) 
oooxbxbbx(0) oooxbbxxb(0) oooxbbxbx(0) ooobxxxxo(0) ooobxxxox(0) ooobxxxbb(0) 
oobxoxxxo(0) oobxoxxox(0) obxxoxxoo(0) obxxoxoxo(0) obxxoxbbo(0) obxxooxxo(0) 
obxxobxbo(0) obxxobbxo(0) obxoxxobb(0) obxooxxxo(0) obxboxxbo(0) obxboxbxo(0) 
obxbobxxo(0) oboxoxxxo(0) obbxoxxbo(0) obbxoxbxo(0) obbxobxxo(0) obbboxxxo(0) 
bxxxxoooo(0) bxxxoxooo(0) bxxxbbooo(0) bxxoxxooo(0) bxxbxbooo(0) bxxbbxooo(0) 
bxoxxoxoo(0) bxbxxbooo(0) bxbxbxooo(0) bxbbxxooo(0) boxxoxxoo(0) boxxoxbob(0) 
boxxooxox(0) boxxobxob(0) boxxobbox(0) boxboxxob(0) boxbobxox(0) booxxoxxo(0) 
booxoxxox(0) bobxoxxob(0) bobxoxbox(0) bobxobxox(0) bobboxxox(0) bbxxxbooo(0) 
bbxxbxooo(0) bbxbxxooo(0) bboxxoxbo(0) bboxboxxo(0) xoxxxooxo(0) xoxxoxoxo(0) 
xoxxoooxx(0) xoxoxxoxo(0) xoxooxxxo(0) xoooxxxxo(0) oxxxooxox(0) 
Positive (X wins): 331
Negative (X doesn't win):148

|--------|
|Clusters|
|--------|

Cluster 1:
G_11: oxooxoxxx(1)
G_12: xxooxooxx(1)

Cluster 2:
G_21: ooxxxxxoo(1)
G_22: xoxxxoxoo(1)

------------------
Adjusted Rand Index: 0.005
